\relax 
\providecommand\zref@newlabel[2]{}
\@writefile{toc}{\contentsline {paragraph}{JCCC!}{2}\protected@file@percent }
\@writefile{toc}{\contentsline {paragraph}{Job history:}{2}\protected@file@percent }
\@writefile{toc}{\contentsline {paragraph}{School history:}{2}\protected@file@percent }
\@writefile{toc}{\contentsline {paragraph}{Additional info:}{2}\protected@file@percent }
\@writefile{toc}{\contentsline {paragraph}{Portfolio webpage:}{3}\protected@file@percent }
\@writefile{toc}{\contentsline {paragraph}{Projects:}{3}\protected@file@percent }
\@writefile{toc}{\contentsline {paragraph}{Online job postings:}{4}\protected@file@percent }
\@writefile{toc}{\contentsline {paragraph}{Friends and contacts:}{4}\protected@file@percent }
\@writefile{toc}{\contentsline {paragraph}{Networking events:}{4}\protected@file@percent }
\@writefile{toc}{\contentsline {paragraph}{Recruiters:}{5}\protected@file@percent }
\@writefile{toc}{\contentsline {paragraph}{Every interview is different:}{7}\protected@file@percent }
\newlabel{LastPage}{{}{10}}
\xdef\lastpage@lastpage{10}
\gdef\lastpage@lastpageHy{}
