\relax 
\providecommand\zref@newlabel[2]{}
\@writefile{toc}{\contentsline {chapter}{\numberline {1}Introduction}{2}\protected@file@percent }
\@writefile{lof}{\addvspace {10\p@ }}
\@writefile{lot}{\addvspace {10\p@ }}
\@writefile{toc}{\contentsline {section}{\numberline {1.1}About}{2}\protected@file@percent }
\@writefile{toc}{\contentsline {section}{\numberline {1.2}Turn-in instructions}{2}\protected@file@percent }
\@writefile{toc}{\contentsline {section}{\numberline {1.3}Memory addresses}{3}\protected@file@percent }
\@writefile{toc}{\contentsline {paragraph}{Question 1\ - Bits and Bytes}{3}\protected@file@percent }
\@writefile{toc}{\contentsline {paragraph}{Question 2\ - Bits and Bytes}{4}\protected@file@percent }
\@writefile{toc}{\contentsline {section}{\numberline {1.4}Binary, Decimal, and Hexadecimal}{5}\protected@file@percent }
\@writefile{toc}{\contentsline {paragraph}{Example:}{6}\protected@file@percent }
\@writefile{toc}{\contentsline {paragraph}{Example:}{6}\protected@file@percent }
\@writefile{toc}{\contentsline {paragraph}{Question 3\ - Binary and Hexadecimal}{6}\protected@file@percent }
\@writefile{toc}{\contentsline {section}{\numberline {1.5}Arrays and memory}{7}\protected@file@percent }
\@writefile{toc}{\contentsline {paragraph}{Question 4\ - Filling space}{7}\protected@file@percent }
\@writefile{toc}{\contentsline {paragraph}{Question 5\ - Filling space}{8}\protected@file@percent }
\@writefile{toc}{\contentsline {paragraph}{Question 6\ - Resizing arrays}{9}\protected@file@percent }
\@writefile{toc}{\contentsline {section}{\numberline {1.6}Addresses and Pointers}{10}\protected@file@percent }
\@writefile{toc}{\contentsline {paragraph}{Question 7\ - Addresses of variables}{11}\protected@file@percent }
\@writefile{toc}{\contentsline {paragraph}{Question 8\ - Pointing to addresses}{12}\protected@file@percent }
\@writefile{toc}{\contentsline {paragraph}{Question 9\ - Pointing to addresses}{13}\protected@file@percent }
\@writefile{toc}{\contentsline {chapter}{\numberline {2}Solutions}{14}\protected@file@percent }
\@writefile{lof}{\addvspace {10\p@ }}
\@writefile{lot}{\addvspace {10\p@ }}
\newlabel{LastPage}{{}{15}}
\xdef\lastpage@lastpage{15}
\gdef\lastpage@lastpageHy{}
