\relax 
\providecommand\zref@newlabel[2]{}
\@writefile{toc}{\contentsline {paragraph}{The Stack}{2}\protected@file@percent }
\@writefile{toc}{\contentsline {paragraph}{The Heap}{2}\protected@file@percent }
\@writefile{toc}{\contentsline {paragraph}{The Code}{2}\protected@file@percent }
\@writefile{toc}{\contentsline {paragraph}{The Static/Global}{2}\protected@file@percent }
\newlabel{LastPage}{{}{9}}
\xdef\lastpage@lastpage{9}
\gdef\lastpage@lastpageHy{}
