\relax 
\providecommand\zref@newlabel[2]{}
\@writefile{toc}{\contentsline {paragraph}{a. a AND b:}{4}\protected@file@percent }
\@writefile{toc}{\contentsline {paragraph}{b. a OR b:}{4}\protected@file@percent }
\@writefile{toc}{\contentsline {paragraph}{c. Combinations:}{4}\protected@file@percent }
\newlabel{LastPage}{{}{9}}
\xdef\lastpage@lastpage{9}
\gdef\lastpage@lastpageHy{}
